Trabajo Personal
…
Las variables que tienen valores NA son: tailnum, dep_time, de_delay, arr_time, arr_delay y air_time.

10. Ordena los vuelos de flights para encontrar los vuelos ms retrasados en la salida. Qu vuelos fueron los que salieron los primeros antes de lo previsto?

arrange(vuelos, desc(dep_delay))

## # A tibble: 336,776 x 19
##     year month   day dep_time sched_dep_time dep_delay arr_time sched_arr_time
##    <int> <int> <int>    <int>          <int>     <dbl>    <int>          <int>
##  1  2013     1     9      641            900      1301     1242           1530
##  2  2013     6    15     1432           1935      1137     1607           2120
##  3  2013     1    10     1121           1635      1126     1239           1810
##  4  2013     9    20     1139           1845      1014     1457           2210
##  5  2013     7    22      845           1600      1005     1044           1815
##  6  2013     4    10     1100           1900       960     1342           2211
##  7  2013     3    17     2321            810       911      135           1020
##  8  2013     6    27      959           1900       899     1236           2226
##  9  2013     7    22     2257            759       898      121           1026
## 10  2013    12     5      756           1700       896     1058           2020
## # ... with 336,766 more rows, and 11 more variables: arr_delay <dbl>,
## #   carrier <chr>, flight <int>, tailnum <chr>, origin <chr>, dest <chr>,
## #   air_time <dbl>, distance <dbl>, hour <dbl>, minute <dbl>, time_hour <dttm>

arrange(vuelos, dep_delay)

## # A tibble: 336,776 x 19
##     year month   day dep_time sched_dep_time dep_delay arr_time sched_arr_time
##    <int> <int> <int>    <int>          <int>     <dbl>    <int>          <int>
##  1  2013    12     7     2040           2123       -43       40           2352
##  2  2013     2     3     2022           2055       -33     2240           2338
##  3  2013    11    10     1408           1440       -32     1549           1559
##  4  2013     1    11     1900           1930       -30     2233           2243
##  5  2013     1    29     1703           1730       -27     1947           1957
##  6  2013     8     9      729            755       -26     1002            955
##  7  2013    10    23     1907           1932       -25     2143           2143
##  8  2013     3    30     2030           2055       -25     2213           2250
##  9  2013     3     2     1431           1455       -24     1601           1631
## 10  2013     5     5      934            958       -24     1225           1309
## # ... with 336,766 more rows, and 11 more variables: arr_delay <dbl>,
## #   carrier <chr>, flight <int>, tailnum <chr>, origin <chr>, dest <chr>,
## #   air_time <dbl>, distance <dbl>, hour <dbl>, minute <dbl>, time_hour <dttm>

El vuelo que ms temprano salo antes de lo previsto es el que tiene un tailnum de N592JB y salo 43 minutos antes. El segundo vuelo que ms temprano salo es el que tiene un tailnum de N612DL y salo 33 minutos antes.

11. Ordena los vuelos de flights para encontrar los vuelos ms rpidos. Usa el concepto de rapidez que consideres.

vuelos$velocidad <- vuelos$distance/vuelos$air_time
arrange(vuelos, desc(velocidad))

## # A tibble: 336,776 x 20
##     year month   day dep_time sched_dep_time dep_delay arr_time sched_arr_time
##    <int> <int> <int>    <int>          <int>     <dbl>    <int>          <int>
##  1  2013     5    25     1709           1700         9     1923           1937
##  2  2013     7     2     1558           1513        45     1745           1719
##  3  2013     5    13     2040           2025        15     2225           2226
##  4  2013     3    23     1914           1910         4     2045           2043
##  5  2013     1    12     1559           1600        -1     1849           1917
##  6  2013    11    17      650            655        -5     1059           1150
##  7  2013     2    21     2355           2358        -3      412            438
##  8  2013    11    17      759            800        -1     1212           1255
##  9  2013    11    16     2003           1925        38       17             36
## 10  2013    11    16     2349           2359       -10      402            440
## # ... with 336,766 more rows, and 12 more variables: arr_delay <dbl>,
## #   carrier <chr>, flight <int>, tailnum <chr>, origin <chr>, dest <chr>,
## #   air_time <dbl>, distance <dbl>, hour <dbl>, minute <dbl>, time_hour <dttm>,
## #   velocidad <dbl>

12. Qu vuelos tienen los trayectos ms largos?

arrange(vuelos, desc(distance))

## # A tibble: 336,776 x 20
##     year month   day dep_time sched_dep_time dep_delay arr_time sched_arr_time
##    <int> <int> <int>    <int>          <int>     <dbl>    <int>          <int>
##  1  2013     1     1      857            900        -3     1516           1530
##  2  2013     1     2      909            900         9     1525           1530
##  3  2013     1     3      914            900        14     1504           1530
##  4  2013     1     4      900            900         0     1516           1530
##  5  2013     1     5      858            900        -2     1519           1530
##  6  2013     1     6     1019            900        79     1558           1530
##  7  2013     1     7     1042            900       102     1620           1530
##  8  2013     1     8      901            900         1     1504           1530
##  9  2013     1     9      641            900      1301     1242           1530
## 10  2013     1    10      859            900        -1     1449           1530
## # ... with 336,766 more rows, and 12 more variables: arr_delay <dbl>,
## #   carrier <chr>, flight <int>, tailnum <chr>, origin <chr>, dest <chr>,
## #   air_time <dbl>, distance <dbl>, hour <dbl>, minute <dbl>, time_hour <dttm>,
## #   velocidad <dbl>

El trayecto ms largo es el que sale del aeropuerto JFK y aterriza en el aeropuerto HNL, cuya distancia total es de 4983 millas.

13. Qu vuelos tienen los trayectos ms cortos?

arrange(vuelos, distance)

## # A tibble: 336,776 x 20
##     year month   day dep_time sched_dep_time dep_delay arr_time sched_arr_time
##    <int> <int> <int>    <int>          <int>     <dbl>    <int>          <int>
##  1  2013     7    27       NA            106        NA       NA            245
##  2  2013     1     3     2127           2129        -2     2222           2224
##  3  2013     1     4     1240           1200        40     1333           1306
##  4  2013     1     4     1829           1615       134     1937           1721
##  5  2013     1     4     2128           2129        -1     2218           2224
##  6  2013     1     5     1155           1200        -5     1241           1306
##  7  2013     1     6     2125           2129        -4     2224           2224
##  8  2013     1     7     2124           2129        -5     2212           2224
##  9  2013     1     8     2127           2130        -3     2304           2225
## 10  2013     1     9     2126           2129        -3     2217           2224
## # ... with 336,766 more rows, and 12 more variables: arr_delay <dbl>,
## #   carrier <chr>, flight <int>, tailnum <chr>, origin <chr>, dest <chr>,
## #   air_time <dbl>, distance <dbl>, hour <dbl>, minute <dbl>, time_hour <dttm>,
## #   velocidad <dbl>
…
El da ms conveniente para viajar es el sbado como podemos ver en el grfico de barras, ya que es el da en el que menos retrasos se producen.

22. Para cada destino, calcula el total de minutos de retraso acumulado.

retraso_totvuelos <- vuelos %>%
  filter(arr_delay > 0) %>%
  group_by(dest) %>%
  summarise(arr_delay = sum(arr_delay))
retraso_totvuelos

## # A tibble: 103 x 2
##    dest  arr_delay
##    <chr>     <dbl>
##  1 ABQ        4487
##  2 ACK        2974
##  3 ALB        9580
##  4 ANC          62
##  5 ATL      300299
##  6 AUS       39940
##  7 AVL        3671
##  8 BDL        6953
##  9 BGR        6940
## 10 BHM        7267
## # ... with 93 more rows
…
vuelos %>%
   filter(arr_delay > 0) %>%
   group_by(dest, origin, carrier, flight) %>%
   summarise(arr_delay = sum(arr_delay)) %>%
   group_by(dest) %>%
   mutate(
     arr_delay_prop = arr_delay / sum(arr_delay)
   ) %>%
   arrange(dest, desc(arr_delay_prop)) %>%
   select(carrier, flight, origin, dest, arr_delay_prop) 

## `summarise()` has grouped output by 'dest', 'origin', 'carrier'. You can override using the `.groups` argument.

## # A tibble: 8,834 x 5
## # Groups:   dest [103]
##    carrier flight origin dest  arr_delay_prop
##    <chr>    <int> <chr>  <chr>          <dbl>
##  1 B6        1505 JFK    ABQ           0.567 
##  2 B6          65 JFK    ABQ           0.433 
##  3 B6        1191 JFK    ACK           0.475 
##  4 B6        1491 JFK    ACK           0.414 
##  5 B6        1291 JFK    ACK           0.0898
##  6 B6        1195 JFK    ACK           0.0208
##  7 EV        4309 EWR    ALB           0.174 
##  8 EV        4271 EWR    ALB           0.137 
##  9 EV        4117 EWR    ALB           0.0951
## 10 EV        4088 EWR    ALB           0.0865
## # ... with 8,824 more rows
…
